<?xml version="1.0" encoding="utf-8"?>
<!-- Generator: Adobe Illustrator 16.0.0, SVG Export Plug-In . SVG Version: 6.00 Build 0)  -->
<!DOCTYPE svg PUBLIC "-//W3C//DTD SVG 1.1//EN" "http://www.w3.org/Graphics/SVG/1.1/DTD/svg11.dtd">
<svg version="1.1" id="Default" xmlns="http://www.w3.org/2000/svg" xmlns:xlink="http://www.w3.org/1999/xlink" x="0px" y="0px"
	 width="595.28px" height="841.89px" viewBox="0 0 595.28 841.89" enable-background="new 0 0 595.28 841.89" xml:space="preserve">
<path fill="none" stroke="#000000" stroke-linecap="round" stroke-linejoin="round" d="M118.777,332.502
	c7.07,5.595,14.139,5.595,21.208,0c-5.595,7.069-5.595,14.139,0,21.208"/>
<path fill="none" stroke="#000000" stroke-linecap="round" stroke-linejoin="round" d="M97.568,311.293
	c7.07-5.595,14.139-5.595,21.208,0c0-7.069,0-14.139,0-21.208c-5.595,7.069-5.595,14.139,0,21.208"/>
<path fill="none" stroke="#000000" stroke-linecap="round" stroke-linejoin="round" d="M122.973,290.085
	c0,3.535-1.398,7.069-4.196,10.604c7.07,0,14.139,0,21.208,0"/>
<path fill="none" stroke="#000000" stroke-linecap="round" stroke-linejoin="round" d="M86.964,343.106
	c7.069-5.595,14.139-5.595,21.208,0c0-10.604,0-21.208,0-31.813c5.595,7.07,5.595,14.139,0,21.209c10.604,0,21.208,0,31.813,0
	c0,14.139,0,28.278,0,42.417c-3.535,0-7.069,0-10.604,0c5.595-7.07,5.595-14.139,0-21.209"/>
<path fill="none" stroke="#000000" stroke-linecap="round" stroke-linejoin="round" d="M44.547,311.293
	c7.07-5.595,14.139-5.595,21.208,0c0-7.069,0-14.139,0-21.208c-5.595,7.069-5.595,14.139,0,21.208"/>
<path fill="none" stroke="#000000" stroke-linecap="round" stroke-linejoin="round" d="M69.952,290.085
	c0,3.535-1.399,7.069-4.196,10.604c10.604,0,21.209,0,31.813,0c-5.595,7.069-5.595,14.139,0,21.208"/>
<path fill="none" stroke="#000000" stroke-linecap="round" stroke-linejoin="round" d="M44.547,321.897
	c-5.595-7.069-5.595-14.139,0-21.208c-3.535,0-7.069,0-10.604,0c0,14.139,0,28.278,0,42.417c10.604,0,21.208,0,31.813,0
	c-5.595,7.069-5.595,14.139,0,21.208"/>
<path fill="none" stroke="#000000" stroke-linecap="round" stroke-linejoin="round" d="M76.36,332.502
	c-5.595-7.07-5.595-14.139,0-21.209c-10.604,0-21.208,0-31.813,0c5.595-7.069,5.595-14.139,0-21.208
	c7.07,5.595,14.139,5.595,21.208,0"/>
<path fill="none" stroke="#000000" stroke-linecap="round" stroke-linejoin="round" d="M65.756,300.689
	c7.07-5.595,14.139-5.595,21.209,0c0-3.535,0-7.069,0-10.604c-14.139,0-28.278,0-42.417,0c0,10.604,0,21.208,0,31.813
	c-3.535-2.797-7.069-4.196-10.604-4.196"/>
<path fill="none" stroke="#000000" stroke-linecap="round" stroke-linejoin="round" d="M55.152,332.502
	c5.595-7.07,5.595-14.139,0-21.209c0,10.604,0,21.209,0,31.813c-7.07-5.595-14.139-5.595-21.208,0
	c5.595-7.069,5.595-14.139,0-21.208c7.069,0,14.139,0,21.208,0c-5.595,7.069-5.595,14.139,0,21.208"/>
<path fill="none" stroke="#000000" stroke-linecap="round" stroke-linejoin="round" d="M76.36,321.897
	c7.07-5.595,14.139-5.595,21.208,0c0-10.604,0-21.208,0-31.813c5.595,7.069,5.595,14.139,0,21.208c10.604,0,21.208,0,31.813,0"/>
<path fill="none" stroke="#000000" stroke-linecap="round" stroke-linejoin="round" d="M108.173,343.106
	c-5.595-7.069-5.595-14.139,0-21.208c-10.604,0-21.208,0-31.813,0c5.595-7.069,5.595-14.139,0-21.208c0,10.604,0,21.208,0,31.813
	c-7.069-5.595-14.139-5.595-21.208,0c10.604,0,21.208,0,31.813,0c-5.595,7.069-5.595,14.139,0,21.208"/>
<polyline fill="none" stroke="#000000" stroke-linecap="round" stroke-linejoin="round" points="279.322,385.523 268.718,396.127 
	258.114,385.523 258.114,396.127 279.322,396.127 279.322,385.523 247.509,385.523 268.718,364.314 236.905,364.314 
	258.114,343.106 226.301,343.106 247.509,321.897 215.697,321.897 236.905,300.689 205.092,300.689 215.697,290.085 
	226.301,300.689 226.301,290.085 183.884,290.085 183.884,321.897 173.28,311.293 183.884,300.689 173.28,300.689 173.28,343.106 
	205.092,343.106 183.884,364.314 215.697,364.314 194.488,385.523 226.301,385.523 215.697,396.127 205.092,385.523 
	205.092,396.127 247.509,396.127 247.509,364.314 268.718,385.523 268.718,353.71 279.322,364.314 268.718,374.919 279.322,374.919 
	279.322,332.502 "/>
<path fill="none" stroke="#000000" stroke-linecap="round" stroke-linejoin="round" d="M108.173,311.293
	c7.069,5.595,14.139,5.595,21.208,0c-5.595,7.07-5.595,14.139,0,21.209"/>
<polygon fill="none" stroke="#000000" stroke-linecap="round" stroke-linejoin="round" points="183.884,374.919 183.884,343.106 
	205.092,364.314 205.092,332.502 226.301,353.71 226.301,321.897 247.509,343.106 247.509,311.293 268.718,332.502 268.718,300.689 
	279.322,311.293 268.718,321.897 279.322,321.897 279.322,290.085 236.905,290.085 258.114,311.293 258.114,290.085 
	236.905,311.293 268.718,311.293 247.509,332.502 279.322,332.502 258.114,353.71 279.322,353.71 258.114,332.502 258.114,364.314 
	236.905,343.106 236.905,374.919 215.697,353.71 215.697,385.523 194.488,364.314 194.488,396.127 173.28,396.127 173.28,353.71 
	183.884,353.71 173.28,364.314 "/>
<polyline fill="none" stroke="#000000" stroke-linecap="round" stroke-linejoin="round" points="183.884,290.085 205.092,311.293 
	205.092,290.085 183.884,311.293 215.697,311.293 194.488,332.502 226.301,332.502 205.092,353.71 236.905,353.71 215.697,374.919 
	247.509,374.919 226.301,396.127 226.301,374.919 247.509,396.127 "/>
<polygon fill="none" stroke="#000000" stroke-linecap="round" stroke-linejoin="round" points="258.114,300.689 268.718,290.085 
	279.322,300.689 "/>
<path fill="none" stroke="#000000" stroke-linecap="round" stroke-linejoin="round" d="M108.173,332.502
	c7.069-5.595,14.139-5.595,21.208,0c0-10.604,0-21.209,0-31.813c3.535,2.797,7.069,4.196,10.604,4.196"/>
<path fill="none" stroke="#000000" stroke-linecap="round" stroke-linejoin="round" d="M108.173,385.523
	c7.069-5.595,14.139-5.595,21.208,0c0-10.604,0-21.208,0-31.813c3.535,2.798,7.069,4.197,10.604,4.197"/>
<polyline fill="none" stroke="#000000" stroke-linecap="round" stroke-linejoin="round" points="173.28,396.127 194.488,374.919 
	173.28,374.919 194.488,396.127 "/>
<path fill="none" stroke="#000000" stroke-linecap="round" stroke-linejoin="round" d="M135.789,290.085
	c0,3.535,1.399,7.069,4.196,10.604c-7.069-5.595-14.139-5.595-21.208,0"/>
<polyline fill="none" stroke="#000000" stroke-linecap="round" stroke-linejoin="round" points="173.28,343.106 194.488,321.897 
	173.28,321.897 194.488,343.106 194.488,311.293 215.697,332.502 215.697,300.689 236.905,321.897 236.905,290.085 "/>
<path fill="none" stroke="#000000" stroke-linecap="round" stroke-linejoin="round" d="M129.381,300.689
	c5.595,7.069,5.595,14.139,0,21.208c3.535,0,7.069,0,10.604,0c0-10.604,0-21.208,0-31.813c-14.139,0-28.278,0-42.417,0
	c7.07,5.595,14.139,5.595,21.208,0"/>
<path fill="none" stroke="#000000" stroke-linecap="round" stroke-linejoin="round" d="M33.943,370.723
	c3.535,0,7.069,1.398,10.604,4.196c0-10.604,0-21.209,0-31.813c5.595,7.069,5.595,14.139,0,21.208c10.604,0,21.208,0,31.813,0
	c-5.595,7.069-5.595,14.139,0,21.208"/>
<path fill="none" stroke="#000000" stroke-linecap="round" stroke-linejoin="round" d="M65.756,353.71
	c7.07-5.595,14.139-5.595,21.209,0c0-10.604,0-21.208,0-31.813c5.595,7.069,5.595,14.139,0,21.208c10.604,0,21.208,0,31.813,0
	c-5.595,7.069-5.595,14.139,0,21.208"/>
<path fill="none" stroke="#000000" stroke-linecap="round" stroke-linejoin="round" d="M44.547,364.314
	c7.07-5.595,14.139-5.595,21.208,0c0-10.604,0-21.208,0-31.813c5.595,7.069,5.595,14.139,0,21.208c10.604,0,21.209,0,31.813,0
	c-5.595,7.07-5.595,14.139,0,21.209"/>
<path fill="none" stroke="#000000" stroke-linecap="round" stroke-linejoin="round" d="M55.152,385.523
	c7.069-5.595,14.139-5.595,21.208,0c0-10.604,0-21.208,0-31.813c5.595,7.07,5.595,14.139,0,21.209c10.604,0,21.208,0,31.813,0
	c-5.595,7.069-5.595,14.139,0,21.208c-7.07-5.595-14.139-5.595-21.208,0"/>
<path fill="none" stroke="#000000" stroke-linecap="round" stroke-linejoin="round" d="M76.36,374.919
	c7.07-5.595,14.139-5.595,21.208,0c0-10.604,0-21.209,0-31.813c5.595,7.069,5.595,14.139,0,21.208c10.604,0,21.208,0,31.813,0
	c-5.595,7.069-5.595,14.139,0,21.208"/>
<path fill="none" stroke="#000000" stroke-linecap="round" stroke-linejoin="round" d="M97.568,364.314
	c7.07-5.595,14.139-5.595,21.208,0c0-10.604,0-21.208,0-31.813c5.595,7.069,5.595,14.139,0,21.208c7.07,0,14.139,0,21.208,0
	c-7.069-5.595-14.139-5.595-21.208,0"/>
<path fill="none" stroke="#000000" stroke-linecap="round" stroke-linejoin="round" d="M86.964,374.919c0,7.069,0,14.139,0,21.208
	C92.559,389.058,92.559,381.988,86.964,374.919z"/>
<path fill="none" stroke="#000000" stroke-linecap="round" stroke-linejoin="round" d="M86.964,385.523
	c-7.07,5.595-14.139,5.595-21.209,0c0,3.535,0,7.069,0,10.604c14.139,0,28.278,0,42.417,0c0-10.604,0-21.208,0-31.813
	c5.595,7.069,5.595,14.139,0,21.208c10.604,0,21.208,0,31.813,0c0,3.535,0,7.069,0,10.604c-7.069,0-14.139,0-21.208,0
	c0-3.535,0-7.069,0-10.604c7.07,5.595,14.139,5.595,21.208,0c-2.797,3.535-4.196,7.069-4.196,10.604"/>
<path fill="none" stroke="#000000" stroke-linecap="round" stroke-linejoin="round" d="M33.943,374.919c7.069,0,14.139,0,21.208,0
	c-5.595,7.069-5.595,14.139,0,21.208c-7.07-5.595-14.139-5.595-21.208,0C39.538,389.058,39.538,381.988,33.943,374.919z"/>
<path fill="none" stroke="#000000" stroke-linecap="round" stroke-linejoin="round" d="M44.547,374.919
	c-5.595-7.07-5.595-14.139,0-21.209c-3.535,0-7.069,0-10.604,0c0,14.139,0,28.278,0,42.417c7.069,0,14.139,0,21.208,0
	c0-10.604,0-21.208,0-31.813c5.595,7.069,5.595,14.139,0,21.208c10.604,0,21.208,0,31.813,0c-2.798,3.535-4.196,7.069-4.196,10.604"
	/>
<path fill="none" stroke="#000000" stroke-linecap="round" stroke-linejoin="round" d="M139.985,370.723
	c-3.535,0-7.069,1.398-10.604,4.196"/>
<path fill="none" stroke="#000000" stroke-linecap="round" stroke-linejoin="round" d="M69.952,396.127
	c0-3.535-1.399-7.069-4.196-10.604"/>
<path fill="none" stroke="#000000" stroke-linecap="round" stroke-linejoin="round" d="M122.973,396.127
	c0-3.535-1.398-7.069-4.196-10.604"/>
<path fill="none" stroke="#000000" stroke-linecap="round" stroke-linejoin="round" d="M33.943,357.907
	c3.535,0,7.069-1.399,10.604-4.197"/>
<path fill="none" stroke="#000000" stroke-linecap="round" stroke-linejoin="round" d="M33.943,304.885
	c3.535,0,7.069-1.399,10.604-4.196"/>
<path fill="none" stroke="#000000" stroke-linecap="round" stroke-linejoin="round" d="M139.985,317.701
	c-3.535,0-7.069,1.399-10.604,4.196"/>
<path fill="none" stroke="#000000" stroke-linecap="round" stroke-linejoin="round" d="M82.768,290.085
	c0,3.535,1.398,7.069,4.196,10.604"/>
<path fill="none" stroke="#000000" stroke-linecap="round" stroke-linejoin="round" d="M33.943,374.919
	c7.069,5.595,14.139,5.595,21.208,0"/>
<path fill="none" stroke="#000000" stroke-linecap="round" stroke-linejoin="round" d="M108.173,364.314
	c7.069,5.595,14.139,5.595,21.208,0"/>
<path fill="none" stroke="#000000" stroke-linecap="round" stroke-linejoin="round" d="M86.964,374.919
	c7.069,5.595,14.139,5.595,21.208,0"/>
<path fill="none" stroke="#000000" stroke-linecap="round" stroke-linejoin="round" d="M55.152,364.314
	c7.069,5.595,14.139,5.595,21.208,0"/>
<path fill="none" stroke="#000000" stroke-linecap="round" stroke-linejoin="round" d="M33.943,321.897
	c7.069,5.595,14.139,5.595,21.208,0"/>
<path fill="none" stroke="#000000" stroke-linecap="round" stroke-linejoin="round" d="M44.547,343.106
	c7.07,5.595,14.139,5.595,21.208,0"/>
<path fill="none" stroke="#000000" stroke-linecap="round" stroke-linejoin="round" d="M97.568,343.106
	c7.07,5.595,14.139,5.595,21.208,0"/>
<path fill="none" stroke="#000000" stroke-linecap="round" stroke-linejoin="round" d="M76.36,353.71
	c7.07,5.595,14.139,5.595,21.208,0"/>
<path fill="none" stroke="#000000" stroke-linecap="round" stroke-linejoin="round" d="M86.964,321.897
	c7.069,5.595,14.139,5.595,21.208,0"/>
<path fill="none" stroke="#000000" stroke-linecap="round" stroke-linejoin="round" d="M65.756,332.502
	c7.07,5.595,14.139,5.595,21.209,0"/>
<path fill="none" stroke="#000000" stroke-linecap="round" stroke-linejoin="round" d="M76.36,300.689
	c7.07,5.595,14.139,5.595,21.208,0"/>
<path fill="none" stroke="#000000" stroke-linecap="round" stroke-linejoin="round" d="M55.152,311.293
	c7.069,5.595,14.139,5.595,21.208,0"/>
<line fill="none" stroke="#000000" stroke-linecap="round" stroke-linejoin="round" x1="541.335" y1="290.085" x2="541.335" y2="396.127"/>
<line fill="none" stroke="#000000" stroke-linecap="round" stroke-linejoin="round" x1="520.126" y1="290.085" x2="520.126" y2="396.127"/>
<line fill="none" stroke="#000000" stroke-linecap="round" stroke-linejoin="round" x1="498.918" y1="290.085" x2="498.918" y2="396.127"/>
<line fill="none" stroke="#000000" stroke-linecap="round" stroke-linejoin="round" x1="477.709" y1="290.085" x2="477.709" y2="396.127"/>
<line fill="none" stroke="#000000" stroke-linecap="round" stroke-linejoin="round" x1="456.501" y1="290.085" x2="456.501" y2="396.127"/>
<rect x="533.836" y="356.816" transform="matrix(0.7071 -0.7071 0.7071 0.7071 -99.0559 489.4868)" fill="none" stroke="#000000" stroke-linecap="round" stroke-linejoin="round" width="14.997" height="14.997"/>
<rect x="512.628" y="356.816" transform="matrix(0.7071 -0.7071 0.7071 0.7071 -105.2677 474.4902)" fill="none" stroke="#000000" stroke-linecap="round" stroke-linejoin="round" width="14.997" height="14.997"/>
<rect x="491.419" y="356.816" transform="matrix(0.7071 -0.7071 0.7071 0.7071 -111.4795 459.4935)" fill="none" stroke="#000000" stroke-linecap="round" stroke-linejoin="round" width="14.997" height="14.997"/>
<rect x="470.211" y="356.816" transform="matrix(0.7071 -0.7071 0.7071 0.7071 -117.6913 444.4968)" fill="none" stroke="#000000" stroke-linecap="round" stroke-linejoin="round" width="14.997" height="14.997"/>
<rect x="449.002" y="356.816" transform="matrix(0.7071 -0.7071 0.7071 0.7071 -123.9032 429.5002)" fill="none" stroke="#000000" stroke-linecap="round" stroke-linejoin="round" width="14.997" height="14.997"/>
<rect x="533.836" y="314.399" transform="matrix(0.7071 -0.7071 0.7071 0.7071 -69.0625 477.0632)" fill="none" stroke="#000000" stroke-linecap="round" stroke-linejoin="round" width="14.997" height="14.997"/>
<rect x="512.628" y="314.399" transform="matrix(0.7071 -0.7071 0.7071 0.7071 -75.2744 462.0665)" fill="none" stroke="#000000" stroke-linecap="round" stroke-linejoin="round" width="14.997" height="14.997"/>
<rect x="491.419" y="314.399" transform="matrix(0.7071 -0.7071 0.7071 0.7071 -81.4862 447.0699)" fill="none" stroke="#000000" stroke-linecap="round" stroke-linejoin="round" width="14.997" height="14.997"/>
<rect x="470.211" y="314.399" transform="matrix(0.7071 -0.7071 0.7071 0.7071 -87.698 432.0732)" fill="none" stroke="#000000" stroke-linecap="round" stroke-linejoin="round" width="14.997" height="14.997"/>
<line fill="none" stroke="#000000" stroke-linecap="round" stroke-linejoin="round" x1="445.896" y1="396.127" x2="467.105" y2="374.919"/>
<line fill="none" stroke="#000000" stroke-linecap="round" stroke-linejoin="round" x1="445.896" y1="374.919" x2="467.105" y2="396.127"/>
<line fill="none" stroke="#000000" stroke-linecap="round" stroke-linejoin="round" x1="530.73" y1="396.127" x2="551.939" y2="374.919"/>
<line fill="none" stroke="#000000" stroke-linecap="round" stroke-linejoin="round" x1="530.73" y1="374.919" x2="551.939" y2="396.127"/>
<line fill="none" stroke="#000000" stroke-linecap="round" stroke-linejoin="round" x1="509.522" y1="396.127" x2="530.73" y2="374.919"/>
<line fill="none" stroke="#000000" stroke-linecap="round" stroke-linejoin="round" x1="509.522" y1="374.919" x2="530.73" y2="396.127"/>
<line fill="none" stroke="#000000" stroke-linecap="round" stroke-linejoin="round" x1="488.313" y1="396.127" x2="509.522" y2="374.919"/>
<line fill="none" stroke="#000000" stroke-linecap="round" stroke-linejoin="round" x1="488.313" y1="374.919" x2="509.522" y2="396.127"/>
<line fill="none" stroke="#000000" stroke-linecap="round" stroke-linejoin="round" x1="467.105" y1="396.127" x2="488.313" y2="374.919"/>
<line fill="none" stroke="#000000" stroke-linecap="round" stroke-linejoin="round" x1="467.105" y1="374.919" x2="488.313" y2="396.127"/>
<line fill="none" stroke="#000000" stroke-linecap="round" stroke-linejoin="round" x1="445.896" y1="353.71" x2="467.105" y2="332.502"/>
<line fill="none" stroke="#000000" stroke-linecap="round" stroke-linejoin="round" x1="445.896" y1="332.502" x2="467.105" y2="353.71"/>
<line fill="none" stroke="#000000" stroke-linecap="round" stroke-linejoin="round" x1="530.73" y1="353.71" x2="551.939" y2="332.502"/>
<line fill="none" stroke="#000000" stroke-linecap="round" stroke-linejoin="round" x1="530.73" y1="332.502" x2="551.939" y2="353.71"/>
<line fill="none" stroke="#000000" stroke-linecap="round" stroke-linejoin="round" x1="509.522" y1="353.71" x2="530.73" y2="332.502"/>
<line fill="none" stroke="#000000" stroke-linecap="round" stroke-linejoin="round" x1="509.522" y1="332.502" x2="530.73" y2="353.71"/>
<line fill="none" stroke="#000000" stroke-linecap="round" stroke-linejoin="round" x1="488.313" y1="353.71" x2="509.522" y2="332.502"/>
<line fill="none" stroke="#000000" stroke-linecap="round" stroke-linejoin="round" x1="488.313" y1="332.502" x2="509.522" y2="353.71"/>
<line fill="none" stroke="#000000" stroke-linecap="round" stroke-linejoin="round" x1="467.105" y1="353.71" x2="488.313" y2="332.502"/>
<line fill="none" stroke="#000000" stroke-linecap="round" stroke-linejoin="round" x1="467.105" y1="332.502" x2="488.313" y2="353.71"/>
<line fill="none" stroke="#000000" stroke-linecap="round" stroke-linejoin="round" x1="530.73" y1="311.293" x2="551.939" y2="290.085"/>
<line fill="none" stroke="#000000" stroke-linecap="round" stroke-linejoin="round" x1="530.73" y1="290.085" x2="551.939" y2="311.293"/>
<line fill="none" stroke="#000000" stroke-linecap="round" stroke-linejoin="round" x1="509.522" y1="311.293" x2="530.73" y2="290.085"/>
<line fill="none" stroke="#000000" stroke-linecap="round" stroke-linejoin="round" x1="509.522" y1="290.085" x2="530.73" y2="311.293"/>
<line fill="none" stroke="#000000" stroke-linecap="round" stroke-linejoin="round" x1="488.313" y1="311.293" x2="509.522" y2="290.085"/>
<line fill="none" stroke="#000000" stroke-linecap="round" stroke-linejoin="round" x1="488.313" y1="290.085" x2="509.522" y2="311.293"/>
<line fill="none" stroke="#000000" stroke-linecap="round" stroke-linejoin="round" x1="467.105" y1="311.293" x2="488.313" y2="290.085"/>
<line fill="none" stroke="#000000" stroke-linecap="round" stroke-linejoin="round" x1="467.105" y1="290.085" x2="488.313" y2="311.293"/>
<rect x="449.002" y="314.399" transform="matrix(0.7071 -0.7071 0.7071 0.7071 -93.9098 417.0765)" fill="none" stroke="#000000" stroke-linecap="round" stroke-linejoin="round" width="14.997" height="14.997"/>
<line fill="none" stroke="#000000" stroke-linecap="round" stroke-linejoin="round" x1="445.896" y1="311.293" x2="467.105" y2="290.085"/>
<line fill="none" stroke="#000000" stroke-linecap="round" stroke-linejoin="round" x1="445.896" y1="290.085" x2="467.105" y2="311.293"/>
<line fill="none" stroke="#000000" stroke-linecap="round" stroke-linejoin="round" x1="551.939" y1="290.085" x2="551.939" y2="396.127"/>
<line fill="none" stroke="#000000" stroke-linecap="round" stroke-linejoin="round" x1="530.73" y1="290.085" x2="530.73" y2="396.127"/>
<line fill="none" stroke="#000000" stroke-linecap="round" stroke-linejoin="round" x1="509.522" y1="290.085" x2="509.522" y2="396.127"/>
<line fill="none" stroke="#000000" stroke-linecap="round" stroke-linejoin="round" x1="488.313" y1="290.085" x2="488.313" y2="396.127"/>
<line fill="none" stroke="#000000" stroke-linecap="round" stroke-linejoin="round" x1="467.105" y1="290.085" x2="467.105" y2="396.127"/>
<line fill="none" stroke="#000000" stroke-linecap="round" stroke-linejoin="round" x1="445.896" y1="396.127" x2="551.939" y2="396.127"/>
<line fill="none" stroke="#000000" stroke-linecap="round" stroke-linejoin="round" x1="445.896" y1="374.919" x2="551.939" y2="374.919"/>
<line fill="none" stroke="#000000" stroke-linecap="round" stroke-linejoin="round" x1="445.896" y1="353.71" x2="551.939" y2="353.71"/>
<line fill="none" stroke="#000000" stroke-linecap="round" stroke-linejoin="round" x1="445.896" y1="332.502" x2="551.939" y2="332.502"/>
<line fill="none" stroke="#000000" stroke-linecap="round" stroke-linejoin="round" x1="445.896" y1="311.293" x2="551.939" y2="311.293"/>
<line fill="none" stroke="#000000" stroke-linecap="round" stroke-linejoin="round" x1="445.896" y1="290.085" x2="445.896" y2="396.127"/>
<line fill="none" stroke="#000000" stroke-linecap="round" stroke-linejoin="round" x1="445.896" y1="290.085" x2="551.939" y2="290.085"/>
<polygon fill="none" stroke="#000000" stroke-linecap="round" stroke-linejoin="round" points="330.363,385.523 362.176,374.919 
	393.989,385.523 362.176,396.127 "/>
<polygon fill="none" stroke="#000000" stroke-linecap="round" stroke-linejoin="round" points="330.363,364.314 362.176,353.71 
	393.989,364.314 362.176,374.919 "/>
<polygon fill="none" stroke="#000000" stroke-linecap="round" stroke-linejoin="round" points="330.363,343.106 362.176,332.502 
	393.989,343.106 362.176,353.71 "/>
<polygon fill="none" stroke="#000000" stroke-linecap="round" stroke-linejoin="round" points="330.363,321.897 362.176,311.293 
	393.989,321.897 362.176,332.502 "/>
<polygon fill="none" stroke="#000000" stroke-linecap="round" stroke-linejoin="round" points="330.363,300.689 362.176,290.085 
	393.989,300.689 362.176,311.293 "/>
<rect x="397.095" y="378.025" transform="matrix(-0.7071 0.7071 -0.7071 -0.7071 963.2894 372.0384)" fill="none" stroke="#000000" stroke-linecap="round" stroke-linejoin="round" width="14.996" height="14.997"/>
<rect x="397.095" y="356.816" transform="matrix(-0.7071 0.7071 -0.7071 -0.7071 948.2921 335.8206)" fill="none" stroke="#000000" stroke-linecap="round" stroke-linejoin="round" width="14.997" height="14.997"/>
<rect x="397.095" y="335.608" transform="matrix(-0.7071 0.7071 -0.7071 -0.7071 933.296 299.6281)" fill="none" stroke="#000000" stroke-linecap="round" stroke-linejoin="round" width="14.996" height="14.997"/>
<rect x="397.095" y="314.399" transform="matrix(-0.7071 0.7071 -0.7071 -0.7071 918.298 263.411)" fill="none" stroke="#000000" stroke-linecap="round" stroke-linejoin="round" width="14.997" height="14.997"/>
<rect x="397.095" y="293.191" transform="matrix(-0.7071 0.7071 -0.7071 -0.7071 903.3027 227.2177)" fill="none" stroke="#000000" stroke-linecap="round" stroke-linejoin="round" width="14.996" height="14.997"/>
<rect x="312.261" y="356.816" transform="matrix(-0.7071 0.7071 -0.7071 -0.7071 803.4728 395.8087)" fill="none" stroke="#000000" stroke-linecap="round" stroke-linejoin="round" width="14.997" height="14.997"/>
<rect x="312.261" y="378.025" transform="matrix(-0.7071 0.7071 -0.7071 -0.7071 818.4687 432.0251)" fill="none" stroke="#000000" stroke-linecap="round" stroke-linejoin="round" width="14.996" height="14.997"/>
<rect x="312.261" y="335.608" transform="matrix(-0.7071 0.7071 -0.7071 -0.7071 788.4753 359.6147)" fill="none" stroke="#000000" stroke-linecap="round" stroke-linejoin="round" width="14.996" height="14.997"/>
<rect x="312.261" y="293.191" transform="matrix(-0.7071 0.7071 -0.7071 -0.7071 758.482 287.2044)" fill="none" stroke="#000000" stroke-linecap="round" stroke-linejoin="round" width="14.996" height="14.997"/>
<rect x="312.261" y="314.399" transform="matrix(-0.7071 0.7071 -0.7071 -0.7071 773.4787 323.3991)" fill="none" stroke="#000000" stroke-linecap="round" stroke-linejoin="round" width="14.997" height="14.997"/>
<line fill="none" stroke="#000000" stroke-linecap="round" stroke-linejoin="round" x1="309.155" y1="385.523" x2="415.197" y2="385.523"/>
<line fill="none" stroke="#000000" stroke-linecap="round" stroke-linejoin="round" x1="309.155" y1="364.314" x2="415.197" y2="364.314"/>
<line fill="none" stroke="#000000" stroke-linecap="round" stroke-linejoin="round" x1="309.155" y1="343.106" x2="415.197" y2="343.106"/>
<line fill="none" stroke="#000000" stroke-linecap="round" stroke-linejoin="round" x1="309.155" y1="321.897" x2="415.197" y2="321.897"/>
<line fill="none" stroke="#000000" stroke-linecap="round" stroke-linejoin="round" x1="309.155" y1="300.689" x2="415.197" y2="300.689"/>
<line fill="none" stroke="#000000" stroke-linecap="round" stroke-linejoin="round" x1="415.197" y1="290.085" x2="415.197" y2="396.127"/>
<line fill="none" stroke="#000000" stroke-linecap="round" stroke-linejoin="round" x1="309.155" y1="290.085" x2="309.155" y2="396.127"/>
<line fill="none" stroke="#000000" stroke-linecap="round" stroke-linejoin="round" x1="393.989" y1="290.085" x2="393.989" y2="396.127"/>
<line fill="none" stroke="#000000" stroke-linecap="round" stroke-linejoin="round" x1="330.363" y1="290.085" x2="330.363" y2="396.127"/>
<line fill="none" stroke="#000000" stroke-linecap="round" stroke-linejoin="round" x1="309.155" y1="396.127" x2="415.197" y2="396.127"/>
<line fill="none" stroke="#000000" stroke-linecap="round" stroke-linejoin="round" x1="309.155" y1="374.919" x2="415.197" y2="374.919"/>
<line fill="none" stroke="#000000" stroke-linecap="round" stroke-linejoin="round" x1="309.155" y1="353.71" x2="415.197" y2="353.71"/>
<line fill="none" stroke="#000000" stroke-linecap="round" stroke-linejoin="round" x1="309.155" y1="332.502" x2="415.197" y2="332.502"/>
<line fill="none" stroke="#000000" stroke-linecap="round" stroke-linejoin="round" x1="309.155" y1="311.293" x2="415.197" y2="311.293"/>
<line fill="none" stroke="#000000" stroke-linecap="round" stroke-linejoin="round" x1="309.155" y1="290.085" x2="415.197" y2="290.085"/>
<polyline fill="none" stroke="#000000" stroke-linecap="round" stroke-linejoin="round" points="392.172,511.164 395.478,513.072 
	397.387,509.767 394.081,507.857 "/>
<line fill="none" stroke="#000000" stroke-linecap="round" stroke-linejoin="round" x1="388.866" y1="516.89" x2="397.387" y2="502.131"/>
<line fill="none" stroke="#000000" stroke-linecap="round" stroke-linejoin="round" x1="407.816" y1="520.196" x2="390.774" y2="520.196"/>
<line fill="none" stroke="#000000" stroke-linecap="round" stroke-linejoin="round" x1="401.204" y1="502.131" x2="409.725" y2="516.89"/>
<polyline fill="none" stroke="#000000" stroke-linecap="round" stroke-linejoin="round" points="392.172,529.229 395.478,531.137 
	397.387,527.831 394.081,525.922 "/>
<line fill="none" stroke="#000000" stroke-linecap="round" stroke-linejoin="round" x1="388.866" y1="534.955" x2="397.387" y2="520.196"/>
<line fill="none" stroke="#000000" stroke-linecap="round" stroke-linejoin="round" x1="407.816" y1="538.261" x2="390.774" y2="538.261"/>
<line fill="none" stroke="#000000" stroke-linecap="round" stroke-linejoin="round" x1="401.204" y1="520.196" x2="409.725" y2="534.955"/>
<line fill="none" stroke="#000000" stroke-linecap="round" stroke-linejoin="round" x1="404.51" y1="525.922" x2="413.031" y2="511.164"/>
<line fill="none" stroke="#000000" stroke-linecap="round" stroke-linejoin="round" x1="423.461" y1="529.229" x2="406.419" y2="529.229"/>
<line fill="none" stroke="#000000" stroke-linecap="round" stroke-linejoin="round" x1="416.849" y1="511.164" x2="425.37" y2="525.922"/>
<line fill="none" stroke="#000000" stroke-linecap="round" stroke-linejoin="round" x1="420.155" y1="534.955" x2="428.676" y2="520.196"/>
<line fill="none" stroke="#000000" stroke-linecap="round" stroke-linejoin="round" x1="439.105" y1="538.261" x2="422.063" y2="538.261"/>
<line fill="none" stroke="#000000" stroke-linecap="round" stroke-linejoin="round" x1="432.493" y1="520.196" x2="441.014" y2="534.955"/>
<line fill="none" stroke="#000000" stroke-linecap="round" stroke-linejoin="round" x1="420.155" y1="516.89" x2="428.676" y2="502.131"/>
<line fill="none" stroke="#000000" stroke-linecap="round" stroke-linejoin="round" x1="439.105" y1="520.196" x2="422.063" y2="520.196"/>
<line fill="none" stroke="#000000" stroke-linecap="round" stroke-linejoin="round" x1="432.493" y1="502.131" x2="441.014" y2="516.89"/>
<line fill="none" stroke="#000000" stroke-linecap="round" stroke-linejoin="round" x1="435.799" y1="525.922" x2="444.32" y2="511.164"/>
<line fill="none" stroke="#000000" stroke-linecap="round" stroke-linejoin="round" x1="454.75" y1="529.229" x2="437.708" y2="529.229"/>
<line fill="none" stroke="#000000" stroke-linecap="round" stroke-linejoin="round" x1="448.138" y1="511.164" x2="456.659" y2="525.922"/>
<line fill="none" stroke="#000000" stroke-linecap="round" stroke-linejoin="round" x1="435.799" y1="543.987" x2="444.32" y2="529.229"/>
<polyline fill="none" stroke="#000000" stroke-linecap="round" stroke-linejoin="round" points="448.138,547.293 448.138,543.476 
	444.32,543.476 444.32,547.293 "/>
<line fill="none" stroke="#000000" stroke-linecap="round" stroke-linejoin="round" x1="454.75" y1="547.293" x2="437.708" y2="547.293"/>
<line fill="none" stroke="#000000" stroke-linecap="round" stroke-linejoin="round" x1="448.138" y1="529.229" x2="456.659" y2="543.987"/>
<line fill="none" stroke="#000000" stroke-linecap="round" stroke-linejoin="round" x1="404.51" y1="543.987" x2="413.031" y2="529.229"/>
<polyline fill="none" stroke="#000000" stroke-linecap="round" stroke-linejoin="round" points="416.849,547.293 416.849,543.476 
	413.031,543.476 413.031,547.293 "/>
<line fill="none" stroke="#000000" stroke-linecap="round" stroke-linejoin="round" x1="423.461" y1="547.293" x2="406.419" y2="547.293"/>
<line fill="none" stroke="#000000" stroke-linecap="round" stroke-linejoin="round" x1="416.849" y1="529.229" x2="425.37" y2="543.987"/>
<rect x="434.845" y="548.946" transform="matrix(0.5 -0.866 0.866 0.5 -260.3346 654.5956)" fill="none" stroke="#000000" stroke-linecap="round" stroke-linejoin="round" width="3.817" height="7.635"/>
<line fill="none" stroke="#000000" stroke-linecap="round" stroke-linejoin="round" x1="420.155" y1="553.02" x2="428.676" y2="538.261"/>
<polyline fill="none" stroke="#000000" stroke-linecap="round" stroke-linejoin="round" points="432.493,556.326 432.493,552.508 
	428.676,552.508 428.676,556.326 "/>
<line fill="none" stroke="#000000" stroke-linecap="round" stroke-linejoin="round" x1="439.105" y1="556.326" x2="422.063" y2="556.326"/>
<line fill="none" stroke="#000000" stroke-linecap="round" stroke-linejoin="round" x1="432.493" y1="538.261" x2="441.014" y2="553.02"/>
<rect x="397.387" y="466.002" fill="none" stroke="#000000" stroke-linecap="round" stroke-linejoin="round" width="3.817" height="7.635"/>
<polyline fill="none" stroke="#000000" stroke-linecap="round" stroke-linejoin="round" points="392.172,475.034 395.478,476.943 
	397.387,473.637 394.081,471.728 "/>
<line fill="none" stroke="#000000" stroke-linecap="round" stroke-linejoin="round" x1="388.866" y1="480.761" x2="397.387" y2="466.002"/>
<line fill="none" stroke="#000000" stroke-linecap="round" stroke-linejoin="round" x1="407.816" y1="484.066" x2="390.774" y2="484.066"/>
<line fill="none" stroke="#000000" stroke-linecap="round" stroke-linejoin="round" x1="401.204" y1="466.002" x2="409.725" y2="480.761"/>
<line fill="none" stroke="#000000" stroke-linecap="round" stroke-linejoin="round" x1="404.51" y1="489.793" x2="413.031" y2="475.034"/>
<line fill="none" stroke="#000000" stroke-linecap="round" stroke-linejoin="round" x1="423.461" y1="493.099" x2="406.419" y2="493.099"/>
<line fill="none" stroke="#000000" stroke-linecap="round" stroke-linejoin="round" x1="416.849" y1="475.034" x2="425.37" y2="489.793"/>
<rect x="413.031" y="456.969" fill="none" stroke="#000000" stroke-linecap="round" stroke-linejoin="round" width="3.817" height="7.635"/>
<polyline fill="none" stroke="#000000" stroke-linecap="round" stroke-linejoin="round" points="407.816,466.002 411.123,467.911 
	413.031,464.604 409.725,462.696 "/>
<line fill="none" stroke="#000000" stroke-linecap="round" stroke-linejoin="round" x1="404.51" y1="471.728" x2="413.031" y2="456.969"/>
<line fill="none" stroke="#000000" stroke-linecap="round" stroke-linejoin="round" x1="423.461" y1="475.034" x2="406.419" y2="475.034"/>
<polyline fill="none" stroke="#000000" stroke-linecap="round" stroke-linejoin="round" points="420.155,462.696 416.849,464.604 
	418.757,467.911 422.063,466.002 "/>
<line fill="none" stroke="#000000" stroke-linecap="round" stroke-linejoin="round" x1="416.849" y1="456.969" x2="425.37" y2="471.728"/>
<line fill="none" stroke="#000000" stroke-linecap="round" stroke-linejoin="round" x1="420.155" y1="480.761" x2="428.676" y2="466.002"/>
<line fill="none" stroke="#000000" stroke-linecap="round" stroke-linejoin="round" x1="439.105" y1="484.066" x2="422.063" y2="484.066"/>
<line fill="none" stroke="#000000" stroke-linecap="round" stroke-linejoin="round" x1="432.493" y1="466.002" x2="441.014" y2="480.761"/>
<line fill="none" stroke="#000000" stroke-linecap="round" stroke-linejoin="round" x1="420.155" y1="498.825" x2="428.676" y2="484.066"/>
<line fill="none" stroke="#000000" stroke-linecap="round" stroke-linejoin="round" x1="439.105" y1="502.131" x2="422.063" y2="502.131"/>
<line fill="none" stroke="#000000" stroke-linecap="round" stroke-linejoin="round" x1="432.493" y1="484.066" x2="441.014" y2="498.825"/>
<polyline fill="none" stroke="#000000" stroke-linecap="round" stroke-linejoin="round" points="392.172,493.099 395.478,495.008 
	397.387,491.702 394.081,489.793 "/>
<line fill="none" stroke="#000000" stroke-linecap="round" stroke-linejoin="round" x1="388.866" y1="498.825" x2="397.387" y2="484.066"/>
<line fill="none" stroke="#000000" stroke-linecap="round" stroke-linejoin="round" x1="407.816" y1="502.131" x2="390.774" y2="502.131"/>
<line fill="none" stroke="#000000" stroke-linecap="round" stroke-linejoin="round" x1="401.204" y1="484.066" x2="409.725" y2="498.825"/>
<line fill="none" stroke="#000000" stroke-linecap="round" stroke-linejoin="round" x1="404.51" y1="507.857" x2="413.031" y2="493.099"/>
<line fill="none" stroke="#000000" stroke-linecap="round" stroke-linejoin="round" x1="423.461" y1="511.164" x2="406.419" y2="511.164"/>
<line fill="none" stroke="#000000" stroke-linecap="round" stroke-linejoin="round" x1="416.849" y1="493.099" x2="425.37" y2="507.857"/>
<line fill="none" stroke="#000000" stroke-linecap="round" stroke-linejoin="round" x1="435.799" y1="489.793" x2="444.32" y2="475.034"/>
<line fill="none" stroke="#000000" stroke-linecap="round" stroke-linejoin="round" x1="454.75" y1="493.099" x2="437.708" y2="493.099"/>
<line fill="none" stroke="#000000" stroke-linecap="round" stroke-linejoin="round" x1="448.138" y1="475.034" x2="456.659" y2="489.793"/>
<line fill="none" stroke="#000000" stroke-linecap="round" stroke-linejoin="round" x1="451.444" y1="498.825" x2="459.965" y2="484.066"/>
<line fill="none" stroke="#000000" stroke-linecap="round" stroke-linejoin="round" x1="470.395" y1="502.131" x2="453.353" y2="502.131"/>
<line fill="none" stroke="#000000" stroke-linecap="round" stroke-linejoin="round" x1="463.782" y1="484.066" x2="472.303" y2="498.825"/>
<rect x="459.965" y="466.002" fill="none" stroke="#000000" stroke-linecap="round" stroke-linejoin="round" width="3.817" height="7.635"/>
<line fill="none" stroke="#000000" stroke-linecap="round" stroke-linejoin="round" x1="451.444" y1="480.761" x2="459.965" y2="466.002"/>
<line fill="none" stroke="#000000" stroke-linecap="round" stroke-linejoin="round" x1="470.395" y1="484.066" x2="453.353" y2="484.066"/>
<line fill="none" stroke="#000000" stroke-linecap="round" stroke-linejoin="round" x1="463.782" y1="466.002" x2="472.303" y2="480.761"/>
<line fill="none" stroke="#000000" stroke-linecap="round" stroke-linejoin="round" x1="467.088" y1="489.793" x2="475.609" y2="475.034"/>
<line fill="none" stroke="#000000" stroke-linecap="round" stroke-linejoin="round" x1="486.039" y1="493.099" x2="468.997" y2="493.099"/>
<line fill="none" stroke="#000000" stroke-linecap="round" stroke-linejoin="round" x1="479.427" y1="475.034" x2="487.948" y2="489.793"/>
<line fill="none" stroke="#000000" stroke-linecap="round" stroke-linejoin="round" x1="467.088" y1="507.857" x2="475.609" y2="493.099"/>
<line fill="none" stroke="#000000" stroke-linecap="round" stroke-linejoin="round" x1="486.039" y1="511.164" x2="468.997" y2="511.164"/>
<line fill="none" stroke="#000000" stroke-linecap="round" stroke-linejoin="round" x1="479.427" y1="493.099" x2="487.948" y2="507.857"/>
<line fill="none" stroke="#000000" stroke-linecap="round" stroke-linejoin="round" x1="435.799" y1="507.857" x2="444.32" y2="493.099"/>
<line fill="none" stroke="#000000" stroke-linecap="round" stroke-linejoin="round" x1="454.75" y1="511.164" x2="437.708" y2="511.164"/>
<line fill="none" stroke="#000000" stroke-linecap="round" stroke-linejoin="round" x1="448.138" y1="493.099" x2="456.659" y2="507.857"/>
<line fill="none" stroke="#000000" stroke-linecap="round" stroke-linejoin="round" x1="451.444" y1="516.89" x2="459.965" y2="502.131"/>
<line fill="none" stroke="#000000" stroke-linecap="round" stroke-linejoin="round" x1="470.395" y1="520.196" x2="453.353" y2="520.196"/>
<line fill="none" stroke="#000000" stroke-linecap="round" stroke-linejoin="round" x1="463.782" y1="502.131" x2="472.303" y2="516.89"/>
<line fill="none" stroke="#000000" stroke-linecap="round" stroke-linejoin="round" x1="451.444" y1="534.955" x2="459.965" y2="520.196"/>
<line fill="none" stroke="#000000" stroke-linecap="round" stroke-linejoin="round" x1="470.395" y1="538.261" x2="453.353" y2="538.261"/>
<line fill="none" stroke="#000000" stroke-linecap="round" stroke-linejoin="round" x1="463.782" y1="520.196" x2="472.303" y2="534.955"/>
<line fill="none" stroke="#000000" stroke-linecap="round" stroke-linejoin="round" x1="467.088" y1="543.987" x2="475.609" y2="529.229"/>
<polyline fill="none" stroke="#000000" stroke-linecap="round" stroke-linejoin="round" points="479.427,547.293 479.427,543.476 
	475.609,543.476 475.609,547.293 "/>
<line fill="none" stroke="#000000" stroke-linecap="round" stroke-linejoin="round" x1="486.039" y1="547.293" x2="468.997" y2="547.293"/>
<line fill="none" stroke="#000000" stroke-linecap="round" stroke-linejoin="round" x1="479.427" y1="529.229" x2="487.948" y2="543.987"/>
<line fill="none" stroke="#000000" stroke-linecap="round" stroke-linejoin="round" x1="467.088" y1="525.922" x2="475.609" y2="511.164"/>
<line fill="none" stroke="#000000" stroke-linecap="round" stroke-linejoin="round" x1="486.039" y1="529.229" x2="468.997" y2="529.229"/>
<line fill="none" stroke="#000000" stroke-linecap="round" stroke-linejoin="round" x1="479.427" y1="511.164" x2="487.948" y2="525.922"/>
<rect x="497.423" y="530.881" transform="matrix(0.5 -0.866 0.866 0.5 -213.3926 699.8024)" fill="none" stroke="#000000" stroke-linecap="round" stroke-linejoin="round" width="3.818" height="7.635"/>
<line fill="none" stroke="#000000" stroke-linecap="round" stroke-linejoin="round" x1="482.733" y1="534.955" x2="491.254" y2="520.196"/>
<line fill="none" stroke="#000000" stroke-linecap="round" stroke-linejoin="round" x1="501.684" y1="538.261" x2="484.642" y2="538.261"/>
<polyline fill="none" stroke="#000000" stroke-linecap="round" stroke-linejoin="round" points="498.377,525.922 495.071,527.831 
	496.98,531.137 500.286,529.229 "/>
<line fill="none" stroke="#000000" stroke-linecap="round" stroke-linejoin="round" x1="495.071" y1="520.196" x2="503.592" y2="534.955"/>
<rect x="497.423" y="548.946" transform="matrix(0.5 -0.866 0.866 0.5 -229.0475 708.7886)" fill="none" stroke="#000000" stroke-linecap="round" stroke-linejoin="round" width="3.817" height="7.635"/>
<line fill="none" stroke="#000000" stroke-linecap="round" stroke-linejoin="round" x1="482.733" y1="553.02" x2="491.254" y2="538.261"/>
<polyline fill="none" stroke="#000000" stroke-linecap="round" stroke-linejoin="round" points="495.071,556.326 495.071,552.508 
	491.254,552.508 491.254,556.326 "/>
<line fill="none" stroke="#000000" stroke-linecap="round" stroke-linejoin="round" x1="501.684" y1="556.326" x2="484.642" y2="556.326"/>
<polyline fill="none" stroke="#000000" stroke-linecap="round" stroke-linejoin="round" points="498.377,543.987 495.071,545.896 
	496.98,549.202 500.286,547.293 "/>
<line fill="none" stroke="#000000" stroke-linecap="round" stroke-linejoin="round" x1="495.071" y1="538.261" x2="503.592" y2="553.02"/>
<rect x="466.134" y="548.946" transform="matrix(0.5 -0.866 0.866 0.5 -244.691 681.6921)" fill="none" stroke="#000000" stroke-linecap="round" stroke-linejoin="round" width="3.817" height="7.635"/>
<line fill="none" stroke="#000000" stroke-linecap="round" stroke-linejoin="round" x1="451.444" y1="553.02" x2="459.965" y2="538.261"/>
<polyline fill="none" stroke="#000000" stroke-linecap="round" stroke-linejoin="round" points="463.782,556.326 463.782,552.508 
	459.965,552.508 459.965,556.326 "/>
<line fill="none" stroke="#000000" stroke-linecap="round" stroke-linejoin="round" x1="470.395" y1="556.326" x2="453.353" y2="556.326"/>
<line fill="none" stroke="#000000" stroke-linecap="round" stroke-linejoin="round" x1="463.782" y1="538.261" x2="472.303" y2="553.02"/>
<rect x="497.423" y="494.752" transform="matrix(0.5 -0.866 0.866 0.5 -182.1032 681.7369)" fill="none" stroke="#000000" stroke-linecap="round" stroke-linejoin="round" width="3.818" height="7.635"/>
<line fill="none" stroke="#000000" stroke-linecap="round" stroke-linejoin="round" x1="482.733" y1="498.825" x2="491.254" y2="484.066"/>
<line fill="none" stroke="#000000" stroke-linecap="round" stroke-linejoin="round" x1="501.684" y1="502.131" x2="484.642" y2="502.131"/>
<polyline fill="none" stroke="#000000" stroke-linecap="round" stroke-linejoin="round" points="498.377,489.793 495.071,491.702 
	496.98,495.008 500.286,493.099 "/>
<line fill="none" stroke="#000000" stroke-linecap="round" stroke-linejoin="round" x1="495.071" y1="484.066" x2="503.592" y2="498.825"/>
<rect x="497.423" y="512.816" transform="matrix(0.5 -0.866 0.866 0.5 -197.7477 690.7695)" fill="none" stroke="#000000" stroke-linecap="round" stroke-linejoin="round" width="3.818" height="7.635"/>
<line fill="none" stroke="#000000" stroke-linecap="round" stroke-linejoin="round" x1="482.733" y1="516.89" x2="491.254" y2="502.131"/>
<line fill="none" stroke="#000000" stroke-linecap="round" stroke-linejoin="round" x1="501.684" y1="520.196" x2="484.642" y2="520.196"/>
<polyline fill="none" stroke="#000000" stroke-linecap="round" stroke-linejoin="round" points="498.377,507.857 495.071,509.767 
	496.98,513.072 500.286,511.164 "/>
<line fill="none" stroke="#000000" stroke-linecap="round" stroke-linejoin="round" x1="495.071" y1="502.131" x2="503.592" y2="516.89"/>
<rect x="403.556" y="548.946" transform="matrix(0.5 -0.866 0.866 0.5 -275.9781 627.499)" fill="none" stroke="#000000" stroke-linecap="round" stroke-linejoin="round" width="3.817" height="7.635"/>
<polyline fill="none" stroke="#000000" stroke-linecap="round" stroke-linejoin="round" points="392.172,547.293 395.478,549.202 
	397.387,545.896 394.081,543.987 "/>
<line fill="none" stroke="#000000" stroke-linecap="round" stroke-linejoin="round" x1="388.866" y1="553.02" x2="397.387" y2="538.261"/>
<polyline fill="none" stroke="#000000" stroke-linecap="round" stroke-linejoin="round" points="401.204,556.326 401.204,552.508 
	397.387,552.508 397.387,556.326 "/>
<line fill="none" stroke="#000000" stroke-linecap="round" stroke-linejoin="round" x1="407.816" y1="556.326" x2="390.774" y2="556.326"/>
<line fill="none" stroke="#000000" stroke-linecap="round" stroke-linejoin="round" x1="401.204" y1="538.261" x2="409.725" y2="553.02"/>
<rect x="444.32" y="456.969" fill="none" stroke="#000000" stroke-linecap="round" stroke-linejoin="round" width="3.817" height="7.635"/>
<polyline fill="none" stroke="#000000" stroke-linecap="round" stroke-linejoin="round" points="439.105,466.002 442.412,467.911 
	444.32,464.604 441.014,462.696 "/>
<line fill="none" stroke="#000000" stroke-linecap="round" stroke-linejoin="round" x1="435.799" y1="471.728" x2="444.32" y2="456.969"/>
<line fill="none" stroke="#000000" stroke-linecap="round" stroke-linejoin="round" x1="454.75" y1="475.034" x2="437.708" y2="475.034"/>
<polyline fill="none" stroke="#000000" stroke-linecap="round" stroke-linejoin="round" points="451.444,462.696 448.138,464.604 
	450.046,467.911 453.353,466.002 "/>
<line fill="none" stroke="#000000" stroke-linecap="round" stroke-linejoin="round" x1="448.138" y1="456.969" x2="456.659" y2="471.728"/>
<polyline fill="none" stroke="#000000" stroke-linecap="round" stroke-linejoin="round" points="470.395,466.002 473.701,467.911 
	475.609,464.604 472.303,462.696 "/>
<line fill="none" stroke="#000000" stroke-linecap="round" stroke-linejoin="round" x1="467.088" y1="471.728" x2="475.609" y2="456.969"/>
<line fill="none" stroke="#000000" stroke-linecap="round" stroke-linejoin="round" x1="486.039" y1="475.034" x2="468.997" y2="475.034"/>
<polyline fill="none" stroke="#000000" stroke-linecap="round" stroke-linejoin="round" points="482.733,462.696 479.427,464.604 
	481.335,467.911 484.642,466.002 "/>
<line fill="none" stroke="#000000" stroke-linecap="round" stroke-linejoin="round" x1="479.427" y1="456.969" x2="487.948" y2="471.728"/>
<rect x="497.423" y="476.687" transform="matrix(0.5 -0.866 0.866 0.5 -166.4583 672.704)" fill="none" stroke="#000000" stroke-linecap="round" stroke-linejoin="round" width="3.818" height="7.635"/>
<line fill="none" stroke="#000000" stroke-linecap="round" stroke-linejoin="round" x1="482.733" y1="480.761" x2="491.254" y2="466.002"/>
<line fill="none" stroke="#000000" stroke-linecap="round" stroke-linejoin="round" x1="501.684" y1="484.066" x2="484.642" y2="484.066"/>
<polyline fill="none" stroke="#000000" stroke-linecap="round" stroke-linejoin="round" points="498.377,471.728 495.071,473.637 
	496.98,476.943 500.286,475.034 "/>
<line fill="none" stroke="#000000" stroke-linecap="round" stroke-linejoin="round" x1="495.071" y1="466.002" x2="503.592" y2="480.761"/>
<polygon fill="none" stroke="#000000" stroke-linecap="round" stroke-linejoin="round" points="397.387,545.896 401.204,545.896 
	401.204,534.443 397.387,534.443 390.774,538.261 388.866,534.955 395.478,531.137 397.387,534.443 "/>
<rect x="420.853" y="520.895" transform="matrix(0.5 -0.866 0.866 0.5 -244.6835 629.451)" fill="none" stroke="#000000" stroke-linecap="round" stroke-linejoin="round" width="3.818" height="11.453"/>
<polygon fill="none" stroke="#000000" stroke-linecap="round" stroke-linejoin="round" points="432.493,527.831 432.493,516.378 
	428.676,516.378 418.757,522.105 416.849,518.799 426.767,513.072 428.676,509.767 418.757,504.04 416.849,507.346 426.767,513.072 
	428.676,516.378 428.676,527.831 "/>
<polygon fill="none" stroke="#000000" stroke-linecap="round" stroke-linejoin="round" points="442.412,522.105 444.32,525.411 
	444.32,536.863 434.402,531.137 432.493,534.443 442.412,540.169 444.32,536.863 448.138,536.863 448.138,525.411 444.32,525.411 
	434.402,531.137 432.493,527.831 442.412,522.105 432.493,516.378 434.402,513.072 444.32,518.799 444.32,507.346 442.412,504.04 
	444.32,500.734 448.138,500.734 448.138,489.281 444.32,489.281 434.402,495.008 432.493,491.702 442.412,485.975 432.493,480.249 
	434.402,476.943 444.32,482.669 444.32,471.217 442.412,467.911 432.493,473.637 434.402,476.943 444.32,471.217 448.138,471.217 
	448.138,482.669 444.32,482.669 442.412,485.975 444.32,489.281 444.32,500.734 434.402,495.008 432.493,498.314 442.412,504.04 
	432.493,509.767 434.402,513.072 444.32,507.346 448.138,507.346 448.138,518.799 444.32,518.799 "/>
<rect x="436.498" y="538.959" transform="matrix(0.5 0.866 -0.866 0.5 690.9324 -107.3218)" fill="none" stroke="#000000" stroke-linecap="round" stroke-linejoin="round" width="3.818" height="11.453"/>
<polygon fill="none" stroke="#000000" stroke-linecap="round" stroke-linejoin="round" points="397.387,491.702 401.204,491.702 
	401.204,480.249 397.387,480.249 390.774,484.066 388.866,480.761 395.478,476.943 397.387,480.249 "/>
<rect x="401.391" y="479.55" transform="matrix(0.866 0.5 -0.5 0.866 295.2796 -139.0567)" fill="none" stroke="#000000" stroke-linecap="round" stroke-linejoin="round" width="11.453" height="3.818"/>
<polygon fill="none" stroke="#000000" stroke-linecap="round" stroke-linejoin="round" points="416.849,482.669 416.849,471.217 
	413.031,471.217 403.113,476.943 401.204,473.637 411.123,467.911 413.031,471.217 413.031,482.669 "/>
<polygon fill="none" stroke="#000000" stroke-linecap="round" stroke-linejoin="round" points="426.767,476.943 428.676,480.249 
	428.676,491.702 418.757,485.975 416.849,489.281 426.767,495.008 428.676,491.702 432.493,491.702 432.493,480.249 
	428.676,480.249 418.757,485.975 416.849,482.669 426.767,476.943 416.849,471.217 418.757,467.911 428.676,473.637 
	432.493,473.637 432.493,466.002 428.676,466.002 428.676,473.637 "/>
<polygon fill="none" stroke="#000000" stroke-linecap="round" stroke-linejoin="round" points="428.676,509.767 432.493,509.767 
	432.493,498.314 428.676,498.314 426.767,495.008 416.849,500.734 418.757,504.04 428.676,498.314 "/>
<polygon fill="none" stroke="#000000" stroke-linecap="round" stroke-linejoin="round" points="397.387,509.767 401.204,509.767 
	401.204,498.314 397.387,498.314 390.774,502.131 388.866,498.825 395.478,495.008 397.387,498.314 "/>
<rect x="448.325" y="488.583" transform="matrix(0.866 0.5 -0.5 0.866 306.0839 -161.3138)" fill="none" stroke="#000000" stroke-linecap="round" stroke-linejoin="round" width="11.453" height="3.818"/>
<polygon fill="none" stroke="#000000" stroke-linecap="round" stroke-linejoin="round" points="463.782,491.702 463.782,480.249 
	459.965,480.249 450.046,485.975 448.138,482.669 458.056,476.943 459.965,473.637 450.046,467.911 448.138,471.217 
	458.056,476.943 459.965,480.249 459.965,491.702 "/>
<polygon fill="none" stroke="#000000" stroke-linecap="round" stroke-linejoin="round" points="473.701,485.975 475.609,482.669 
	479.427,482.669 479.427,471.217 475.609,471.217 465.691,476.943 463.782,473.637 473.701,467.911 475.609,471.217 
	475.609,482.669 465.691,476.943 463.782,480.249 473.701,485.975 463.782,491.702 465.691,495.008 475.609,489.281 
	479.427,489.281 479.427,500.734 475.609,500.734 473.701,504.04 463.782,498.314 465.691,495.008 475.609,500.734 475.609,489.281 
	"/>
<polygon fill="none" stroke="#000000" stroke-linecap="round" stroke-linejoin="round" points="489.345,531.137 491.254,534.443 
	491.254,545.896 481.335,540.169 479.427,543.476 489.345,549.202 482.733,553.02 484.642,556.326 491.254,552.508 489.345,549.202 
	491.254,545.896 495.071,545.896 495.071,534.443 491.254,534.443 481.335,540.169 479.427,536.863 489.345,531.137 
	479.427,525.411 481.335,522.105 491.254,527.831 491.254,516.378 489.345,513.072 491.254,509.767 495.071,509.767 
	495.071,498.314 491.254,498.314 481.335,504.04 479.427,500.734 489.345,495.008 479.427,489.281 481.335,485.975 491.254,491.702 
	491.254,480.249 489.345,476.943 491.254,473.637 491.254,466.002 495.071,466.002 495.071,473.637 491.254,473.637 
	481.335,467.911 479.427,471.217 489.345,476.943 479.427,482.669 481.335,485.975 491.254,480.249 495.071,480.249 
	495.071,491.702 491.254,491.702 489.345,495.008 491.254,498.314 491.254,509.767 481.335,504.04 479.427,507.346 489.345,513.072 
	479.427,518.799 481.335,522.105 491.254,516.378 495.071,516.378 495.071,527.831 491.254,527.831 "/>
<polyline fill="none" stroke="#000000" stroke-linecap="round" stroke-linejoin="round" points="475.609,518.799 465.691,513.072 
	463.782,516.378 473.701,522.105 463.782,527.831 465.691,531.137 475.609,525.411 479.427,525.411 479.427,536.863 
	475.609,536.863 473.701,540.169 463.782,534.443 465.691,531.137 475.609,536.863 475.609,525.411 473.701,522.105 
	475.609,518.799 479.427,518.799 479.427,507.346 475.609,507.346 473.701,504.04 463.782,509.767 465.691,513.072 475.609,507.346 
	475.609,518.799 "/>
<polygon fill="none" stroke="#000000" stroke-linecap="round" stroke-linejoin="round" points="459.965,516.378 458.056,513.072 
	459.965,509.767 463.782,509.767 463.782,498.314 459.965,498.314 458.056,495.008 448.138,500.734 450.046,504.04 459.965,498.314 
	459.965,509.767 450.046,504.04 448.138,507.346 458.056,513.072 448.138,518.799 450.046,522.105 459.965,516.378 463.782,516.378 
	463.782,527.831 459.965,527.831 458.056,531.137 459.965,534.443 459.965,545.896 450.046,540.169 448.138,543.476 
	458.056,549.202 451.444,553.02 453.353,556.326 459.965,552.508 458.056,549.202 459.965,545.896 463.782,545.896 463.782,534.443 
	459.965,534.443 450.046,540.169 448.138,536.863 458.056,531.137 448.138,525.411 450.046,522.105 459.965,527.831 "/>
<rect x="463.969" y="542.777" transform="matrix(0.866 -0.5 0.5 0.866 -209.4181 307.8291)" fill="none" stroke="#000000" stroke-linecap="round" stroke-linejoin="round" width="11.453" height="3.818"/>
<rect x="405.209" y="538.959" transform="matrix(0.5 0.866 -0.866 0.5 675.2871 -80.2242)" fill="none" stroke="#000000" stroke-linecap="round" stroke-linejoin="round" width="3.818" height="11.453"/>
<rect x="389.309" y="550.855" transform="matrix(0.866 -0.5 0.5 0.866 -223.7211 270.6372)" fill="none" stroke="#000000" stroke-linecap="round" stroke-linejoin="round" width="7.635" height="3.818"/>
<polygon fill="none" stroke="#000000" stroke-linecap="round" stroke-linejoin="round" points="395.478,513.072 397.387,516.378 
	397.387,527.831 401.204,527.831 401.204,516.378 397.387,516.378 390.774,520.196 388.866,516.89 "/>
<rect x="475.609" y="456.969" fill="none" stroke="#000000" stroke-linecap="round" stroke-linejoin="round" width="3.817" height="7.635"/>
<polygon fill="none" stroke="#000000" stroke-linecap="round" stroke-linejoin="round" points="413.031,507.346 411.123,504.04 
	413.031,500.734 416.849,500.734 416.849,489.281 413.031,489.281 411.123,485.975 401.204,491.702 403.113,495.008 
	413.031,489.281 413.031,500.734 403.113,495.008 401.204,498.314 411.123,504.04 401.204,509.767 403.113,513.072 413.031,507.346 
	416.849,507.346 416.849,518.799 413.031,518.799 411.123,522.105 413.031,525.411 413.031,536.863 403.113,531.137 
	401.204,534.443 411.123,540.169 413.031,536.863 416.849,536.863 416.849,525.411 413.031,525.411 403.113,531.137 
	401.204,527.831 411.123,522.105 401.204,516.378 403.113,513.072 413.031,518.799 "/>
<polygon fill="none" stroke="#000000" stroke-linecap="round" stroke-linejoin="round" points="428.676,552.508 426.767,549.202 
	428.676,545.896 432.493,545.896 432.493,534.443 428.676,534.443 426.767,531.137 416.849,536.863 418.757,540.169 
	428.676,534.443 428.676,545.896 418.757,540.169 416.849,543.476 426.767,549.202 420.155,553.02 422.063,556.326 "/>
<line fill="none" stroke="#000000" stroke-linecap="round" stroke-linejoin="round" x1="296.936" y1="528.075" x2="311.137" y2="552.673"/>
<line fill="none" stroke="#000000" stroke-linecap="round" stroke-linejoin="round" x1="307.956" y1="558.183" x2="279.553" y2="558.183"/>
<polyline fill="none" stroke="#000000" stroke-linecap="round" stroke-linejoin="round" points="296.936,558.183 296.936,551.82 
	290.573,551.82 290.573,558.183 "/>
<line fill="none" stroke="#000000" stroke-linecap="round" stroke-linejoin="round" x1="276.372" y1="552.673" x2="290.573" y2="528.075"/>
<rect x="300.855" y="545.884" transform="matrix(0.5001 -0.866 0.866 0.5001 -326.2404 539.3774)" fill="none" stroke="#000000" stroke-linecap="round" stroke-linejoin="round" width="6.362" height="12.725"/>
<line fill="none" stroke="#000000" stroke-linecap="round" stroke-linejoin="round" x1="270.862" y1="513.021" x2="285.063" y2="537.619"/>
<line fill="none" stroke="#000000" stroke-linecap="round" stroke-linejoin="round" x1="281.882" y1="543.129" x2="253.479" y2="543.129"/>
<polyline fill="none" stroke="#000000" stroke-linecap="round" stroke-linejoin="round" points="270.862,543.129 270.862,536.767 
	264.499,536.767 264.499,543.129 "/>
<line fill="none" stroke="#000000" stroke-linecap="round" stroke-linejoin="round" x1="250.297" y1="537.619" x2="264.499" y2="513.021"/>
<polyline fill="none" stroke="#000000" stroke-linecap="round" stroke-linejoin="round" points="255.808,528.075 261.318,531.256 
	264.499,525.746 258.989,522.565 "/>
<line fill="none" stroke="#000000" stroke-linecap="round" stroke-linejoin="round" x1="323.01" y1="513.021" x2="337.211" y2="537.619"/>
<polyline fill="none" stroke="#000000" stroke-linecap="round" stroke-linejoin="round" points="328.52,522.565 323.01,525.746 
	326.191,531.256 331.702,528.075 "/>
<line fill="none" stroke="#000000" stroke-linecap="round" stroke-linejoin="round" x1="334.03" y1="543.129" x2="305.627" y2="543.129"/>
<polyline fill="none" stroke="#000000" stroke-linecap="round" stroke-linejoin="round" points="323.01,543.129 323.01,536.767 
	316.647,536.767 316.647,543.129 "/>
<line fill="none" stroke="#000000" stroke-linecap="round" stroke-linejoin="round" x1="302.446" y1="537.619" x2="316.647" y2="513.021"/>
<rect x="326.93" y="530.83" transform="matrix(0.5 -0.866 0.866 0.5 -300.1666 554.4974)" fill="none" stroke="#000000" stroke-linecap="round" stroke-linejoin="round" width="6.363" height="12.725"/>
<line fill="none" stroke="#000000" stroke-linecap="round" stroke-linejoin="round" x1="323.01" y1="482.913" x2="337.211" y2="507.511"/>
<polyline fill="none" stroke="#000000" stroke-linecap="round" stroke-linejoin="round" points="328.52,492.457 323.01,495.638 
	326.191,501.148 331.702,497.967 "/>
<line fill="none" stroke="#000000" stroke-linecap="round" stroke-linejoin="round" x1="334.03" y1="513.021" x2="305.627" y2="513.021"/>
<line fill="none" stroke="#000000" stroke-linecap="round" stroke-linejoin="round" x1="302.446" y1="507.511" x2="316.647" y2="482.913"/>
<rect x="326.93" y="500.722" transform="matrix(0.5 -0.866 0.866 0.5 -274.092 539.4427)" fill="none" stroke="#000000" stroke-linecap="round" stroke-linejoin="round" width="6.363" height="12.725"/>
<line fill="none" stroke="#000000" stroke-linecap="round" stroke-linejoin="round" x1="296.936" y1="467.859" x2="311.137" y2="492.457"/>
<polyline fill="none" stroke="#000000" stroke-linecap="round" stroke-linejoin="round" points="302.446,477.403 296.936,480.584 
	300.117,486.094 305.627,482.913 "/>
<line fill="none" stroke="#000000" stroke-linecap="round" stroke-linejoin="round" x1="307.956" y1="497.967" x2="279.553" y2="497.967"/>
<line fill="none" stroke="#000000" stroke-linecap="round" stroke-linejoin="round" x1="276.372" y1="492.457" x2="290.573" y2="467.859"/>
<polyline fill="none" stroke="#000000" stroke-linecap="round" stroke-linejoin="round" points="281.882,482.913 287.392,486.094 
	290.573,480.584 285.063,477.403 "/>
<rect x="290.573" y="467.859" fill="none" stroke="#000000" stroke-linecap="round" stroke-linejoin="round" width="6.362" height="12.725"/>
<line fill="none" stroke="#000000" stroke-linecap="round" stroke-linejoin="round" x1="296.936" y1="497.967" x2="311.137" y2="522.565"/>
<line fill="none" stroke="#000000" stroke-linecap="round" stroke-linejoin="round" x1="307.956" y1="528.075" x2="279.553" y2="528.075"/>
<line fill="none" stroke="#000000" stroke-linecap="round" stroke-linejoin="round" x1="276.372" y1="522.565" x2="290.573" y2="497.967"/>
<line fill="none" stroke="#000000" stroke-linecap="round" stroke-linejoin="round" x1="270.862" y1="482.913" x2="285.063" y2="507.511"/>
<line fill="none" stroke="#000000" stroke-linecap="round" stroke-linejoin="round" x1="281.882" y1="513.021" x2="253.479" y2="513.021"/>
<line fill="none" stroke="#000000" stroke-linecap="round" stroke-linejoin="round" x1="250.297" y1="507.511" x2="264.499" y2="482.913"/>
<polyline fill="none" stroke="#000000" stroke-linecap="round" stroke-linejoin="round" points="255.808,497.967 261.318,501.148 
	264.499,495.638 258.989,492.457 "/>
<rect x="264.499" y="482.913" fill="none" stroke="#000000" stroke-linecap="round" stroke-linejoin="round" width="6.363" height="12.725"/>
<line fill="none" stroke="#000000" stroke-linecap="round" stroke-linejoin="round" x1="198.762" y1="497.872" x2="212.964" y2="522.47"/>
<polyline fill="none" stroke="#000000" stroke-linecap="round" stroke-linejoin="round" points="204.272,507.416 198.762,510.597 
	201.943,516.107 207.454,512.926 "/>
<line fill="none" stroke="#000000" stroke-linecap="round" stroke-linejoin="round" x1="209.783" y1="527.98" x2="181.379" y2="527.98"/>
<polyline fill="none" stroke="#000000" stroke-linecap="round" stroke-linejoin="round" points="198.762,527.98 198.762,521.618 
	192.4,521.618 192.4,527.98 "/>
<line fill="none" stroke="#000000" stroke-linecap="round" stroke-linejoin="round" x1="178.198" y1="522.47" x2="192.4" y2="497.872"/>
<polyline fill="none" stroke="#000000" stroke-linecap="round" stroke-linejoin="round" points="183.708,512.926 189.218,516.107 
	192.4,510.597 186.89,507.416 "/>
<rect x="202.682" y="515.681" transform="matrix(0.5 -0.866 0.866 0.5 -349.1738 439.3192)" fill="none" stroke="#000000" stroke-linecap="round" stroke-linejoin="round" width="6.363" height="12.725"/>
<polygon fill="none" stroke="#000000" stroke-linecap="round" stroke-linejoin="round" points="290.573,551.82 287.392,546.311 
	290.573,540.8 290.573,521.712 296.936,521.712 296.936,540.8 290.573,540.8 274.043,531.256 270.862,536.767 287.392,546.311 
	276.372,552.673 279.553,558.183 "/>
<rect x="254.217" y="530.83" transform="matrix(0.5 0.866 -0.866 0.5 593.9348 45.692)" fill="none" stroke="#000000" stroke-linecap="round" stroke-linejoin="round" width="6.363" height="12.725"/>
<rect x="297.248" y="535.602" transform="matrix(0.866 -0.5 0.5 0.866 -228.2921 225.5836)" fill="none" stroke="#000000" stroke-linecap="round" stroke-linejoin="round" width="19.088" height="6.363"/>
<polygon fill="none" stroke="#000000" stroke-linecap="round" stroke-linejoin="round" points="290.573,510.692 296.936,510.692 
	296.936,491.604 290.573,491.604 287.392,486.094 270.862,495.638 274.043,501.148 290.573,491.604 "/>
<polygon fill="none" stroke="#000000" stroke-linecap="round" stroke-linejoin="round" points="287.392,516.202 290.573,521.712 
	274.043,531.256 270.862,525.746 287.392,516.202 290.573,510.692 274.043,501.148 270.862,506.659 "/>
<rect x="297.248" y="520.548" transform="matrix(0.866 0.5 -0.5 0.866 302.972 -83.2294)" fill="none" stroke="#000000" stroke-linecap="round" stroke-linejoin="round" width="19.088" height="6.363"/>
<polygon fill="none" stroke="#000000" stroke-linecap="round" stroke-linejoin="round" points="261.318,501.148 250.297,507.511 
	253.479,513.021 264.499,506.659 264.499,525.746 270.862,525.746 270.862,506.659 264.499,506.659 "/>
<polygon fill="none" stroke="#000000" stroke-linecap="round" stroke-linejoin="round" points="313.466,501.148 316.647,506.659 
	316.647,525.746 323.01,525.746 323.01,506.659 316.647,506.659 300.117,516.202 296.936,510.692 "/>
<polygon fill="none" stroke="#000000" stroke-linecap="round" stroke-linejoin="round" points="300.117,486.094 296.936,491.604 
	313.466,501.148 316.647,495.638 316.647,482.913 323.01,482.913 323.01,495.638 316.647,495.638 "/>
<rect x="192.4" y="497.872" fill="none" stroke="#000000" stroke-linecap="round" stroke-linejoin="round" width="6.362" height="12.725"/>
<rect x="178.936" y="518.862" transform="matrix(0.866 -0.5 0.5 0.866 -236.1939 162.5869)" fill="none" stroke="#000000" stroke-linecap="round" stroke-linejoin="round" width="12.725" height="6.363"/>
</svg>
